<?xml version="1.0" encoding="UTF-8"?>
<svg width="18px" height="34px" viewBox="0 0 18 34" version="1.1" xmlns="http://www.w3.org/2000/svg" xmlns:xlink="http://www.w3.org/1999/xlink">
    <!-- Generator: Sketch 48.2 (47327) - http://www.bohemiancoding.com/sketch -->
    <title>Shape</title>
    <desc>Created with Sketch.</desc>
    <defs/>
    <g id="Отбивки" stroke="none" stroke-width="1" fill="none" fill-rule="evenodd" transform="translate(-1177.000000, -297.000000)">
        <path d="M1194.21645,297.006885 L1189.92542,297 C1185.10459,297 1181.98916,300.196328 1181.98916,305.143494 L1181.98916,308.89819 L1177.67472,308.89819 C1177.3019,308.89819 1177,309.200438 1177,309.573257 L1177,315.013383 C1177,315.386202 1177.30225,315.688106 1177.67472,315.688106 L1181.98916,315.688106 L1181.98916,329.415277 C1181.98916,329.788096 1182.29107,330.09 1182.66389,330.09 L1188.293,330.09 C1188.66582,330.09 1188.96773,329.787752 1188.96773,329.415277 L1188.96773,315.688106 L1194.01231,315.688106 C1194.38513,315.688106 1194.68704,315.386202 1194.68704,315.013383 L1194.6891,309.573257 C1194.6891,309.394249 1194.61784,309.222814 1194.49151,309.096131 C1194.36517,308.969449 1194.19304,308.89819 1194.01404,308.89819 L1188.96773,308.89819 L1188.96773,305.715287 C1188.96773,304.185456 1189.33228,303.408836 1191.32513,303.408836 L1194.21576,303.407803 C1194.58824,303.407803 1194.89014,303.105555 1194.89014,302.73308 L1194.89014,297.681608 C1194.89014,297.309478 1194.58858,297.007573 1194.21645,297.006885 Z" id="Shape" fill="#ffffff" fill-rule="nonzero"/>
    </g>
</svg>